…
``` r
month_df = 
  tibble(
    month = 1:12,
    month_name = month.name
  )

precip_df = 
  bind_rows(precip_2018, precip_2017) 

left_join(precip_df, month_df,by = "month") %>% 
  relocate(year, month, month_name)
```

    ## # A tibble: 24 x 4
    ##     year month month_name total
    ##    <dbl> <dbl> <chr>      <dbl>
    ##  1  2018     1 January     0.94
    ##  2  2018     2 February    4.8 
    ##  3  2018     3 March       2.69
    ##  4  2018     4 April       4.69
    ##  5  2018     5 May         9.27
    ##  6  2018     6 June        4.77
    ##  7  2018     7 July       10.2 
    ##  8  2018     8 August      6.45
    ##  9  2018     9 September  10.5 
    ## 10  2018    10 October     2.12
    ## # … with 14 more rows
…
